Тема 18 Dracor | Компьютерный анализ текста в R
…
shake <- get_dracor("shake")
summary(shake)

## 37 plays in Shakespeare Drama Corpus 
## Corpus id: shake, repository: https://github.com/dracor-org/shakedracor  
## Description: Derived from the [Folger Shakespeare Library](https://shakespeare.folger.edu/). Enhancements documented in our [README at GitHub](https://github.com/dracor-org/shakedracor).
## Written years (range): 1591–1613 
## No information on premiere years 
## Years of the first printing (range): 1597–1774

shake <- as_tibble(shake)
shake

## # A tibble: 37 × 55
##    corpus id      playName yearNormalized title subtitle firstAuthorName authors
##    <chr>  <chr>   <chr>             <int> <chr> <lgl>    <chr>           <list> 
##  1 shake  shake0… the-tem…           1611 The … NA       Shakespeare, W… <df>   
##  2 shake  shake0… two-gen…           1591 Two … NA       Shakespeare, W… <df>   
##  3 shake  shake0… the-mer…           1602 The … NA       Shakespeare, W… <df>   
##  4 shake  shake0… measure…           1604 Meas… NA       Shakespeare, W… <df>   
##  5 shake  shake0… the-com…           1594 The … NA       Shakespeare, W… <df>   
##  6 shake  shake0… much-ad…           1600 Much… NA       Shakespeare, W… <df>   
##  7 shake  shake0… love-s-…           1595 Love… NA       Shakespeare, W… <df>   
##  8 shake  shake0… a-midsu…           1595 A Mi… NA       Shakespeare, W… <df>   
##  9 shake  shake0… the-mer…           1600 The … NA       Shakespeare, W… <df>   
## 10 shake  shake0… as-you-…           1599 As Y… NA       Shakespeare, W… <df>   
## # ℹ 27 more rows
## # ℹ 47 more variables: source <lgl>, sourceUrl <lgl>, writtenYearStart <lgl>,
## #   writtenYearFinish <int>, printYearStart <lgl>, printYearFinish <int>,
## #   premiereYearStart <lgl>, premiereYearFinish <lgl>, wikidataId <chr>,
## #   networkSize <int>, networkdataCsvUrl <chr>, normalizedGenre <lgl>,
## #   size <int>, density <dbl>, diameter <int>, averageClustering <dbl>,
## #   averagePathLength <dbl>, averageDegree <dbl>, maxDegree <int>, …

Тут хранится очень много всего: размер сети, плотность сети и т.д. Вот так, например, выглядят самые длинные пьесы Шекспира:

shake %>%
  arrange(desc(wordCountText)) %>%
  select(corpus, firstAuthorName, title, wordCountText, yearWrittenMeta)

## # A tibble: 37 × 5
##    corpus firstAuthorName      title               wordCountText yearWrittenMeta
##    <chr>  <chr>                <chr>                       <int>           <int>
##  1 shake  Shakespeare, William Hamlet                      32539            1602
##  2 shake  Shakespeare, William Richard III                 31765            1593
##  3 shake  Shakespeare, William Cymbeline                   30141            1610
##  4 shake  Shakespeare, William Coriolanus                  29948            1608
##  5 shake  Shakespeare, William Troilus and Cressi…         28502            1602
##  6 shake  Shakespeare, William Henry IV, Part II           28461            1598
##  7 shake  Shakespeare, William Othello                     28452            1604
##  8 shake  Shakespeare, William King Lear                   28192            1606
##  9 shake  Shakespeare, William Henry V                     27982            1599
## 10 shake  Shakespeare, William Henry VI, Part 2            27902            1591
## # ℹ 27 more rows
Распределение мужских и женских персонажей по годам:

gender_ratio <- shake %>%
  select(title, yearWrittenMeta, numOfSpeakers, numOfSpeakersFemale, numOfSpeakersMale) %>% 
  mutate(male = numOfSpeakersMale / numOfSpeakers,
         female = numOfSpeakersFemale / numOfSpeakers) %>%
  select(-numOfSpeakers, -numOfSpeakersMale, -numOfSpeakersFemale) %>% 
  arrange(yearWrittenMeta) %>% 
  pivot_longer(cols = c(male, female), names_to = "gender") %>% 
  mutate(year = as.factor(yearWrittenMeta)) %>% 
  select(-yearWrittenMeta)

gender_ratio 

## # A tibble: 74 × 4
##    title                   gender  value year 
##    <chr>                   <chr>   <dbl> <fct>
##  1 Two Gentlemen of Verona male   0.824  1591 
##  2 Two Gentlemen of Verona female 0.176  1591 
##  3 The Taming of the Shrew male   0.5    1591 
##  4 The Taming of the Shrew female 0.0789 1591 
##  5 Henry VI, Part 1        male   0.238  1591 
##  6 Henry VI, Part 1        female 0.0159 1591 
##  7 Henry VI, Part 2        male   0.583  1591 
##  8 Henry VI, Part 2        female 0.0278 1591 
##  9 Henry VI, Part 3        male   0.531  1591 
## 10 Henry VI, Part 3        female 0.0408 1591 
## # ℹ 64 more rows
…
