Тема 17 Анализ сетей | Компьютерный анализ текста в R
…
Теперь можно посчитать совместную встречаемость, например, в рамках одного предложения. Для удобства визуализации я выберу только существительные, которые встречаются чаще 5 раз.

confessions_words <- confessions_ann %>%
  filter(upos == "NOUN") %>% 
  group_by(lemma) %>% 
  add_count() %>% 
  filter(n > 5) %>% 
  select(-n)

confessions_words

## # A tibble: 11,274 × 6
## # Groups:   lemma [431]
##    sentence_id                      sentence          token_id token lemma upos 
##    <chr>                            <chr>             <chr>    <chr> <chr> <chr>
##  1 Augustinus_Confessiones_Liber1-1 magnus es , domi… 4        domi… domi… NOUN 
##  2 Augustinus_Confessiones_Liber1-2 magna virtus tua… 2        virt… uirt… NOUN 
##  3 Augustinus_Confessiones_Liber1-2 magna virtus tua… 5        sapi… sapi… NOUN 
##  4 Augustinus_Confessiones_Liber1-2 magna virtus tua… 9        nume… nume… NOUN 
##  5 Augustinus_Confessiones_Liber1-3 et laudare te vu… 5        homo  homo  NOUN 
##  6 Augustinus_Confessiones_Liber1-3 et laudare te vu… 9        crea… crea… NOUN 
##  7 Augustinus_Confessiones_Liber1-3 et laudare te vu… 13       homo  homo  NOUN 
##  8 Augustinus_Confessiones_Liber1-3 et laudare te vu… 19       test… test… NOUN 
##  9 Augustinus_Confessiones_Liber1-3 et laudare te vu… 20       pecc… pecc… NOUN 
## 10 Augustinus_Confessiones_Liber1-3 et laudare te vu… 23       test… test… NOUN 
## # ℹ 11,264 more rows

Теперь можно составить матрицу совместной встречаемости (и убрать редкие пары).

cooc <- cooccurrence(confessions_words, term = "lemma", group = "sentence_id")

cooc <- cooc %>% 
  as_tibble() %>% 
  filter(cooc > 5)
cooc 

## # A tibble: 781 × 3
##    term1      term2       cooc
##    <chr>      <chr>      <dbl>
##  1 caelum     terra        274
##  2 animus     memoria       55
##  3 dies       nox           48
##  4 caelum     principium    47
##  5 dominus    homo          45
##  6 spatium    tempus        44
##  7 nomen      terra         44
##  8 anima      corpus        43
##  9 imago      memoria       43
## 10 principium terra         43
## # ℹ 771 more rows
…
