Тема 9 Веб-скрапинг | Компьютерный анализ текста в R
…
Обратите внимание, что мы сначала извлекаем нужные элементы при помощи html_elements(), а потом применяем к каждому из них html_element(). Это гарантирует, что в каждом столбце нашей таблицы равное число наблюдений, т.к. функция html_element(), если она не может найти, например, подпись, возвращает NA.

Сшиваем воедино два тиббла.

messages_tbl <- messages_tbl1 %>% 
  bind_rows(messages_tbl2)

messages_tbl

## # A tibble: 1,096 × 3
##    id        signature text                                 
##    <chr>     <chr>     <chr>                                
##  1 message3  <NA>      "Latin never sleeps. Новое видео на …
##  2 message5  <NA>      "Подборка видео семинара по медленно…
##  3 message6  <NA>      "Новое видео в плейлисте \"Латинский…
##  4 message7  <NA>      "🤖 ОТКРЫТА ЗАПИСЬ НА ПРОЕКТ\n\nВ ра…
##  5 message8  <NA>      "Желающие присоединиться к группе, ч…
##  6 message9  <NA>      "https://youtu.be/I-U_lG0mB3M"       
##  7 message10 <NA>      "В клубе Antibarbari продолжается се…
##  8 message11 <NA>      "Филеб. Семинар 3 марта 2022. Сократ…
##  9 message12 <NA>      "Вышка вернулась в аудитории, поэтом…
## 10 message13 <NA>      "Воспользовались дополнительным выхо…
## # ℹ 1,086 more rows
…
9.6 Эмотиконы

В постах довольно много эмотиконов. Я их удалю, но сначала скажу о полезном пакете, который позволяет их все извлечь и, например, посчитать.

library(emoji)

messages_tbl %>% 
  mutate(emoji = emoji_extract_all(text)) %>% 
  pull(emoji) %>% 
  unlist() %>% 
  as_tibble() %>%
  count(value) %>% 
  arrange(-n) 

## # A tibble: 159 × 2
##    value     n
##    <chr> <int>
##  1 👾       68
##  2 ⭐       23
##  3 👀       21
##  4 👇       20
##  5 🍿       18
##  6 📚       16
##  7 🔼       12
##  8 1️⃣        10
##  9 📌       10
## 10 🔗       10
## # ℹ 149 more rows
…
Соединяем:

tales <- tibble(
  title_year = toc2 %>%
    html_text2(),
  href = toc %>% 
    html_attr("href")
)

tales

## # A tibble: 33 × 2
##    title_year                                          href 
##    <chr>                                               <chr>
##  1 Повесть о том, как один мужик двух генералов проко… /wik…
##  2 Годовщина, 1869                                     /wik…
##  3 Пропала совесть, 1869                               /wik…
##  4 Дикий помещик, 1869                                 /wik…
##  5 Премудрый пискарь, 1883                             /wik…
##  6 Самоотверженный заяц, 1883                          /wik…
##  7 Бедный волк, 1883                                   /wik…
##  8 Добродетели и Пороки, 1884                          /wik…
##  9 Медведь на воеводстве, 1884                         /wik…
## 10 Обманщик-газетчик и легковерный читатель, 1884      /wik…
## # ℹ 23 more rows
…
tales_text <- map(urls, get_text)

Несколько сказок не выловились: там другая структура html, но в целом все получилось.

tales_text <- tales_text %>%
  flatten_chr() %>% 
  as_tibble()

tales <- tales %>% 
  bind_cols(tales_text)

tales

## # A tibble: 33 × 3
##    title_year                                           href  value
##    <chr>                                                <chr> <chr>
##  1 Повесть о том, как один мужик двух генералов прокор… http… "Жил…
##  2 Годовщина, 1869                                      http… "Сег…
##  3 Пропала совесть, 1869                                http… "Про…
##  4 Дикий помещик, 1869                                  http… "В н…
##  5 Премудрый пискарь, 1883                              http… "Жил…
##  6 Самоотверженный заяц, 1883                           http… "Одн…
##  7 Бедный волк, 1883                                    http… "Дру…
##  8 Добродетели и Пороки, 1884                           http… "Доб…
##  9 Медведь на воеводстве, 1884                          http… ""   
## 10 Обманщик-газетчик и легковерный читатель, 1884       http… "Жил…
## # ℹ 23 more rows

Дальше можно разделить столбец с названием и годом и, например, удалить ссылку, она больше не нужна. Разделить по запятой не получится, т.к. она есть в некоторых названиях.

tales <- tales %>% 
  select(-href) %>% 
  separate(title_year, into = c("title", "year"), sep = -5) %>% 
  mutate(title = str_remove(title, ",$"))

tales

## # A tibble: 33 × 3
##    title                                                year  value
##    <chr>                                                <chr> <chr>
##  1 Повесть о том, как один мужик двух генералов прокор… " 18… "Жил…
##  2 Годовщина                                            " 18… "Сег…
##  3 Пропала совесть                                      " 18… "Про…
##  4 Дикий помещик                                        " 18… "В н…
##  5 Премудрый пискарь                                    " 18… "Жил…
##  6 Самоотверженный заяц                                 " 18… "Одн…
##  7 Бедный волк                                          " 18… "Дру…
##  8 Добродетели и Пороки                                 " 18… "Доб…
##  9 Медведь на воеводстве                                " 18… ""   
## 10 Обманщик-газетчик и легковерный читатель             " 18… "Жил…
## # ℹ 23 more rows
…
