Тема 3 Визуализации | A Minimal Book Example
…
3.3.2 Слой за слоем: ggplot()

Для более детальной настройки графика рекомендууется использовать функцию ggplot(), которая имеет два основных аргумента: data и aes (англ. aesthetics); последняя присваивает эстетические атрибуты геометрическим объектам, которые используются на графике. Эти объекты могут слоями накладываться друг на друга (wickham2016?).

Посмотрим, как это работает, на примере, столбиковой диаграммы. Такая позволяет представить распределение как количественных, так и качественных переменных. Для примера возьмем датасет diorisis_meta, который хранит данные о древнегреческих текстах, доступных в репозитории Diorisis4.

load("./datasets/DiorisisMeta.Rdata")
diorisis_meta

## # A tibble: 784 × 5
##    name            title                      date genre     subgenre       
##    <chr>           <chr>                     <dbl> <chr>     <chr>          
##  1 Achilles Tatius Leucippe and Clitophon      120 Narrative Novel          
##  2 Aelian          De Natura Animalium         230 Technical Natural History
##  3 Aelian          Epistulae Rusticae          230 Letters   Letters        
##  4 Aelian          Varia Historia              200 Essays    Miscellanea    
##  5 Aeneas Tacticus Poliorcetica               -350 Technical Military       
##  6 Aeschines       Against Ctesiphon          -330 Oratory   Oratory        
##  7 Aeschines       Against Timarchus          -347 Oratory   Oratory        
##  8 Aeschines       The Speech on the Embassy  -336 Oratory   Oratory        
##  9 Aeschylus       Agamemnon                  -458 Tragedy   Tragedy        
## 10 Aeschylus       Eumenides                  -458 Tragedy   Tragedy        
## # ℹ 774 more rows
…
