Тема 6 Импорт и экспорт данных | Компьютерный анализ текста в R
…
Чтобы исправить дело, воспользуемся другой функцией из того же пакета:

users <- read_delim("files/BX/BX-Users.csv", delim = ";", show_col_types = FALSE)
users

## # A tibble: 246,666 × 3
##    `User-ID` Location                           Age  
##        <dbl> <chr>                              <chr>
##  1         1 nyc, new york, usa                 NULL 
##  2         2 stockton, california, usa          18   
##  3         3 moscow, yukon territory, russia    NULL 
##  4         4 porto, v.n.gaia, portugal          17   
##  5         5 farnborough, hants, united kingdom NULL 
##  6         6 santa monica, california, usa      61   
##  7         7 washington, dc, usa                NULL 
##  8         8 timmins, ontario, canada           NULL 
##  9         9 germantown, tennessee, usa         NULL 
## 10        10 albacete, wisconsin, spain         26   
## # ℹ 246,656 more rows
…
Проделаем то же самое для списка эпизодов, но немного другим способом.

episodes_tbl <- tibble(
  episode_id = map_chr(tbbt$episode_list, pluck, "episode_id"),
  title = map_chr(tbbt$episode_list, pluck, "title"))

episodes_tbl

## # A tibble: 280 × 2
##    episode_id title                             
##    <chr>      <chr>                             
##  1 S01E01     Pilot                             
##  2 S01E02     The Big Bran Hypothesis           
##  3 S01E03     The Fuzzy Boots Corollary         
##  4 S01E04     The Luminous Fish Effect          
##  5 S01E05     The Hamburger Postulate           
##  6 S01E06     The Middle-Earth Paradigm         
##  7 S01E07     The Dumpling Paradox              
##  8 S01E08     The Grasshopper Experiment        
##  9 S01E09     The Cooper-Hofstadter Polarization
## 10 S01E10     The Loobenfeld Decay              
## # ℹ 270 more rows
…
caesar 

## # A tibble: 2 × 8
##   gutenberg_id title     author gutenberg_author_id language gutenberg_bookshelf
##          <int> <chr>     <chr>                <int> <chr>    <chr>              
## 1          218 C. Iuli … Caesa…                3621 la       Classical Antiquity
## 2        18837 Commenta… Caesa…                3621 la       Classical Antiquity
## # ℹ 2 more variables: rights <chr>, has_text <lgl>

Чтобы извлечь отдельный текст (тексты):

de_bello_gallico <- gutenberg_download(218, meta_fields = "title", mirror = "ftp://mirrors.xmission.com/gutenberg/")
de_bello_gallico

## # A tibble: 2,552 × 3
##    gutenberg_id text                             title                          
##           <int> <chr>                            <chr>                          
##  1          218 "CAESAR'S COMMENTARIES IN LATIN" C. Iuli Caesaris De Bello Gall…
##  2          218 ""                               C. Iuli Caesaris De Bello Gall…
##  3          218 "Books I-IV"                     C. Iuli Caesaris De Bello Gall…
##  4          218 ""                               C. Iuli Caesaris De Bello Gall…
##  5          218 "By Julius Caesar"               C. Iuli Caesaris De Bello Gall…
##  6          218 ""                               C. Iuli Caesaris De Bello Gall…
##  7          218 ""                               C. Iuli Caesaris De Bello Gall…
##  8          218 ""                               C. Iuli Caesaris De Bello Gall…
##  9          218 ""                               C. Iuli Caesaris De Bello Gall…
## 10          218 ""                               C. Iuli Caesaris De Bello Gall…
## # ℹ 2,542 more rows
…
