Тема 15 Кластеризация и метод главных компонент | Компьютерный анализ текста в R
…
Поскольку у нас многомерные данные, придется использовать метод главных компонент, чтобы изобразить их графически. Об этом методе я скажу ниже.

15.5 Нормализация данных

Формула расстояния зависит от способа измерения объектов. Если одни объекты имеют больший разброс значений, чем другие, то при вычислении расстояний будут преобладать элементы с более широкими диапазонами.

as_tibble(t(map_df(galbraith, var)), rownames = "word")

## # A tibble: 200 × 2
##    word      V1
##    <chr>  <dbl>
##  1 the   0.377 
##  2 and   0.763 
##  3 to    0.0303
##  4 of    0.227 
##  5 a     0.0654
##  6 was   0.0290
##  7 I     0.825 
##  8 in    0.0160
##  9 he    0.0876
## 10 said  0.0631
## # ℹ 190 more rows
…
