Тема 14 Латентно-семантический анализ | Компьютерный анализ текста в R
…
14.5 Векторы слов

Текст хранится в опрятном формате, если одному наблюдению (термину) соответствует один ряд:

library(tidyr)

tidy_corpus <- df %>% 
  as_tibble(rownames = "word") %>% 
  pivot_longer(d1:d5, names_to = "doc")

tidy_corpus

## # A tibble: 40 × 3
##    word   doc   value
##    <chr>  <chr> <dbl>
##  1 romeo  d1        1
##  2 romeo  d2        0
##  3 romeo  d3        1
##  4 romeo  d4        0
##  5 romeo  d5        0
##  6 juliet d1        1
##  7 juliet d2        1
##  8 juliet d3        0
##  9 juliet d4        0
## 10 juliet d5        0
## # ℹ 30 more rows
…
Применив эту функцию к нашим данным, получаем:

tidy_pmi  <- nested_words %>%
  mutate(words = map(words, slide_windows, 4L)) %>% 
  unnest(words) %>% 
  unite(window_id, doc_id, window_id) %>% 
  pairwise_pmi(lemma, window_id)

tidy_pmi %>% 
  arrange(-abs(pmi))

## # A tibble: 112,592 × 3
##    item1        item2          pmi
##    <chr>        <chr>        <dbl>
##  1 исследования фгн           6.83
##  2 фгн          исследования  6.83
##  3 квалификация повышение     6.76
##  4 повышение    квалификация  6.76
##  5 густой       острый        6.43
##  6 острый       густой        6.43
##  7 карточка     набор         6.31
##  8 набор        карточка      6.31
##  9 косвенный    реальность    6.26
## 10 реальность   косвенный     6.26
## # ℹ 112,582 more rows
…
        matrix(res, ncol = 1, dimnames = list(x = names(res)))
      },
      sort = TRUE
    )(item1, dimension, value) %>%
    select(-item2)
}

Результат, кажется, вполне осмысленный.

tidy_word_emb %>% 
  nearest_neighbors("математика")

## # A tibble: 1,810 × 2
##    item1           value
##    <chr>           <dbl>
##  1 математика      1    
##  2 теорема         0.710
##  3 несоизмеримость 0.703
##  4 математик       0.652
##  5 феодор          0.650
##  6 доказывать      0.649
##  7 пересказ        0.623
##  8 представитель   0.601
##  9 чертеж          0.599
## 10 историк         0.578
## # ℹ 1,800 more rows
…
