Тема 13 Латентно-семантический анализ (Часть 1) | Компьютерный анализ текста в R
…
13.5 Векторы слов: опрятно

Текст хранится в опрятном формате, если одному наблюдению (термину) соответствует один ряд:

library(tidyr)

tidy_corpus <- df %>% 
  as_tibble(rownames = "word") %>% 
  pivot_longer(d1:d5, names_to = "doc")

tidy_corpus

## # A tibble: 40 × 3
##    word   doc   value
##    <chr>  <chr> <dbl>
##  1 romeo  d1        1
##  2 romeo  d2        0
##  3 romeo  d3        1
##  4 romeo  d4        0
##  5 romeo  d5        0
##  6 juliet d1        1
##  7 juliet d2        1
##  8 juliet d3        0
##  9 juliet d4        0
## 10 juliet d5        0
## # ℹ 30 more rows
…
