Тема 4 Опрятные данные | Компьютерный анализ текста в R
…
усовершенствованный метод print(), не нужно постоянно вызывать head();

нет имен рядов;

допускает синтаксически “неправильные” имена столбцов;

при индексировании не меняет тип данных на вектор и др.

load("./data/DiorisisMeta.Rdata")

# распечатывает только первые 10 рядов, для каждого столбца указан тип данных, строки пронумерованы
as_tibble(diorisis_meta)

## # A tibble: 784 × 5
##    name            title                      date genre     subgenre       
##    <chr>           <chr>                     <dbl> <chr>     <chr>          
##  1 Achilles Tatius Leucippe and Clitophon      120 Narrative Novel          
##  2 Aelian          De Natura Animalium         230 Technical Natural History
##  3 Aelian          Epistulae Rusticae          230 Letters   Letters        
##  4 Aelian          Varia Historia              200 Essays    Miscellanea    
##  5 Aeneas Tacticus Poliorcetica               -350 Technical Military       
##  6 Aeschines       Against Ctesiphon          -330 Oratory   Oratory        
##  7 Aeschines       Against Timarchus          -347 Oratory   Oratory        
##  8 Aeschines       The Speech on the Embassy  -336 Oratory   Oratory        
##  9 Aeschylus       Agamemnon                  -458 Tragedy   Tragedy        
## 10 Aeschylus       Eumenides                  -458 Tragedy   Tragedy        
## # ℹ 774 more rows

# индексирование 
head(as.data.frame(diorisis_meta)[, 1])  # возвращает вектор

## [1] "Achilles Tatius" "Aelian"          "Aelian"          "Aelian"         
## [5] "Aeneas Tacticus" "Aeschines"

as_tibble(diorisis_meta)[,1] # возвращает тиббл

## # A tibble: 784 × 1
##    name           
##    <chr>          
##  1 Achilles Tatius
##  2 Aelian         
##  3 Aelian         
##  4 Aelian         
##  5 Aeneas Tacticus
##  6 Aeschines      
##  7 Aeschines      
##  8 Aeschines      
##  9 Aeschylus      
## 10 Aeschylus      
## # ℹ 774 more rows
…
Здесь можно сразу посмотреть, из каких стран и какого возраста пользователи.

users_separated %>% 
  group_by(country) %>%
  count() %>% 
  arrange(-n)

## # A tibble: 543 × 2
## # Groups:   country [543]
##    country               n
##    <chr>             <int>
##  1 " usa"            67138
##  2 " united kingdom" 10935
##  3 " canada"          9877
##  4 " spain"           9505
##  5 " germany"         8016
##  6 " australia"       7824
##  7  <NA>              5914
##  8 " italy"           4754
##  9 " france"          2395
## 10 " portugal"        2175
## # ℹ 533 more rows

Последние ряды этого тибла выглядят достаточно причудливо:

users_separated %>% 
  group_by(country) %>%
  count() %>% 
  arrange(n)

## # A tibble: 543 × 2
## # Groups:   country [543]
##    country                    n
##    <chr>                  <int>
##  1 "  pasig city."            1
##  2 " &#20013;&#22269;"        1
##  3 " &#32654;&#22269;"        1
##  4 " 5057chadwick ct."        1
##  5 " 600 083"                 1
##  6 " \\n/a\\\""               1
##  7 " a new year is ahead"     1
##  8 " aberdeenshire"           1
##  9 " agusan del sur"          1
## 10 " alabama"                 1
## # ℹ 533 more rows
…
spain_ratings <- spain_id %>% 
  left_join(ratings) %>% 
  filter(!is.na(ISBN)) %>% 
  filter(`Book-Rating` > 7) %>% # имена синтаксически неправильные, поэтому требуется знак "`"
  group_by(ISBN) %>% 
  count() %>% 
  arrange(-n)

## Joining with `by =
## join_by(`User-ID`)`

spain_ratings

## # A tibble: 1,281 × 2
## # Groups:   ISBN [1,281]
##    ISBN           n
##    <chr>      <int>
##  1 8432206407     4
##  2 8433969978     4
##  3 846630679X     4
##  4 8472236552     4
##  5 8495501198     4
##  6 840149186X     3
##  7 8401499585     3
##  8 8423310353     3
##  9 8423662152     3
## 10 8432215007     3
## # ℹ 1,271 more rows
…
