Тема 15 Поисковик на основе LSA | Компьютерный анализ текста в R
…
load("data/antibarbari_words_tidy.Rdata")

И удалим слова, которые встречаются очень редко.

text_pruned <- text_tidy_nosw %>% 
  add_count(lemma) %>% 
  filter(n > 4) %>% 
  select(-n)

text_pruned

## # A tibble: 25,857 × 2
##    doc_id lemma    
##    <chr>  <chr>    
##  1 doc1   видео    
##  2 doc1   канал    
##  3 doc1   фрагмент 
##  4 doc1   семинар  
##  5 doc2   подборка 
##  6 doc2   видео    
##  7 doc2   семинар  
##  8 doc2   медленный
##  9 doc2   чтение   
## 10 doc2   философия
## # ℹ 25,847 more rows
…
# dtm <- text_pruned_count %>% 
#   cast_sparse(doc_id, lemma, n)

15.2 Эмбеддинги слов

Вычисляем сингулярное разложение. Число главных компонент устанавливаем на 20 (так иногда называют новые измерения).

tidy_word_emb <- text_pruned_tfidf %>%
  widely_svd(item1, doc_id, tf_idf, 
             weight_d = T, nv = 20)

tidy_word_emb

## # A tibble: 36,200 × 3
##    item1       dimension     value
##    <chr>           <int>     <dbl>
##  1 видео               1 -0.0192  
##  2 канал               1 -0.0120  
##  3 семинар             1 -0.00345 
##  4 фрагмент            1 -0.00104 
##  5 автор               1 -0.00319 
##  6 вшэ                 1 -0.00129 
##  7 группа              1 -0.00143 
##  8 доступ              1 -0.000635
##  9 комментарий         1 -0.195   
## 10 личный              1 -0.000320
## # ℹ 36,190 more rows
…
        matrix(res, ncol = 1, dimnames = list(x = names(res)))
      },
      sort = TRUE
    )(item1, dimension, value) %>%
    select(-item2)
}

Проверим осмысленность наших эмбеддингов.

tidy_word_emb %>% 
  nearest_neighbors("платон")

## # A tibble: 1,810 × 2
##    item1         value
##    <chr>         <dbl>
##  1 платон        1    
##  2 птица         0.998
##  3 отказываться  0.997
##  4 софист        0.997
##  5 собеседник    0.997
##  6 квадратный    0.996
##  7 продолговатый 0.996
##  8 евклид        0.996
##  9 становление   0.996
## 10 неподобный    0.996
## # ℹ 1,800 more rows

tidy_word_emb %>% 
  nearest_neighbors("цицерон")

## # A tibble: 1,810 × 2
##    item1        value
##    <chr>        <dbl>
##  1 цицерон      1    
##  2 вилла        0.985
##  3 переписка    0.974
##  4 цезарь       0.971
##  5 могила       0.970
##  6 архимед      0.970
##  7 дружеский    0.960
##  8 письмо       0.954
##  9 тускуланский 0.952
## 10 аттик        0.949
## # ℹ 1,800 more rows
…
