Тема 11 Распределения слов и анализ частотностей | Компьютерный анализ текста в R
…
“Исследование о человеческом разумении” Дэвида Юма (1748)43.

11.1 Извлечение источников

Источники для этого урока доступны в библиотеке Gutengerg; чтобы их извлечь, следует выяснить gutenberg_id. Пример ниже; таким же образом можно найти id для трактатов Локка и Беркли.

# install.packages("gutenbergr")
library(gutenbergr)
library(tidyverse)
library(stringr)

gutenberg_works(str_detect(author, "Hume"), languages = "en")

## # A tibble: 99 × 8
##    gutenberg_id title    author gutenberg_author_id language gutenberg_bookshelf
##           <int> <chr>    <chr>                <int> <chr>    <chr>              
##  1         2868 "The Gr… Hume,…                1057 en       <NA>               
##  2         4223 "The My… Hume,…                1057 en       <NA>               
##  3         4320 "An Enq… Hume,…                1440 en       Philosophy         
##  4         4531 "The Se… Hume,…                1057 en       <NA>               
##  5         4583 "Dialog… Hume,…                1440 en       Philosophy/Paganism
##  6         4705 "A Trea… Hume,…                1440 en       Philosophy         
##  7         4946 "Madame… Hume,…                1057 en       <NA>               
##  8         9662 "An Enq… Hume,…                1440 en       Harvard Classics/P…
##  9        10574 "The Hi… Hume,…                1440 en       United Kingdom     
## 10        13117 "The Ne… Hume,…                4843 en       Natural History/An…
## # ℹ 89 more rows
## # ℹ 2 more variables: rights <chr>, has_text <lgl>

Когда id найдены, gutenbergr позволяет загрузить сочинения; на этом этапе часто возникают ошибки – в таком случае надо воспользоваться одним из зеркал. Список зеркал, как уже говорилось в уроке про импорт данных, доступен по ссылке: https://www.gutenberg.org/MIRRORS.ALL.

my_corpus <- gutenberg_download(meta_fields = c("author", "title"), c(9662, 4723, 10615), mirror = "https://www.gutenberg.org/dirs/")

my_corpus

## # A tibble: 23,844 × 4
##    gutenberg_id text                                                author title
##           <int> <chr>                                               <chr>  <chr>
##  1         4723 "A Treatise Concerning the Principles of Human Kno… Berke… A Tr…
##  2         4723 ""                                                  Berke… A Tr…
##  3         4723 ""                                                  Berke… A Tr…
##  4         4723 "by"                                                Berke… A Tr…
##  5         4723 ""                                                  Berke… A Tr…
##  6         4723 "George Berkeley (1685-1753)"                       Berke… A Tr…
##  7         4723 ""                                                  Berke… A Tr…
##  8         4723 ""                                                  Berke… A Tr…
##  9         4723 "WHEREIN THE CHIEF CAUSES OF ERROR AND DIFFICULTY … Berke… A Tr…
## 10         4723 "WITH THE GROUNDS OF SCEPTICISM, ATHEISM, AND IRRE… Berke… A Tr…
## # ℹ 23,834 more rows
…
tidy_corpus <- bind_rows(Hume, Berkeley, Locke) %>% 
  mutate(text = str_replace_all(text, c("[Mm]an’s" = "man's", "[mM]en’s" = "men's", "[hH]ath" = "has")))

11.3 Токенизация

После этого делим корпус на слова, как мы уже делали в уроке про токенизацию.

library(tidytext)

corpus_words <- tidy_corpus %>% 
  unnest_tokens(word, text)

corpus_words

## # A tibble: 238,538 × 2
##    author word      
##    <chr>  <chr>     
##  1 Hume   moral     
##  2 Hume   philosophy
##  3 Hume   or        
##  4 Hume   the       
##  5 Hume   science   
##  6 Hume   of        
##  7 Hume   human     
##  8 Hume   nature    
##  9 Hume   may       
## 10 Hume   be        
## # ℹ 238,528 more rows
…
other <- c("section", "chapter", 0:40, "edit", 1710, "v.g", "v.g.a")

corpus_words_nosp <- corpus_words %>% 
  anti_join(stop_words) %>% 
  filter(!word %in% other)

## Joining with `by =
## join_by(word)`

corpus_words_nosp

## # A tibble: 73,311 × 2
##    author word      
##    <chr>  <chr>     
##  1 Hume   moral     
##  2 Hume   philosophy
##  3 Hume   science   
##  4 Hume   human     
##  5 Hume   nature    
##  6 Hume   treated   
##  7 Hume   manners   
##  8 Hume   peculiar  
##  9 Hume   merit     
## 10 Hume   contribute
## # ℹ 73,301 more rows
…
Стемминг применяется в некоторых алгоритмах машинного обучения.

11.7 Относительная частотность

Абсолютная частотность – плохой показатель для текстов разной длины. Чтобы тексты было проще сравнивать, разделим показатели частотности на общее число токенов в тексте.

Cначала считаем частотность для всех токенов по авторам.

author_word_counts <- corpus_words %>%
  count(author, word, sort = T) %>% 
  ungroup()

author_word_counts

## # A tibble: 14,111 × 3
##    author word      n
##    <chr>  <chr> <int>
##  1 Locke  the    7431
##  2 Locke  of     7044
##  3 Locke  and    4817
##  4 Locke  to     4603
##  5 Hume   the    3182
##  6 Locke  in     3056
##  7 Locke  that   2954
##  8 Locke  it     2742
##  9 Locke  is     2462
## 10 Hume   of     2461
## # ℹ 14,101 more rows
…
Логарифм единицы равен нулю, поэтому если слово встречается во всех документах, его tf-idf равно нулю. Чем выше tf-idf, тем более характерно некое слово для некоторого документа. Однако относительная частотность тоже учитывается! Например, Беркли один раз упоминает “сахарные бобы”, а Локк – “миндаль”, но из-за редкой частотности tf-idf для подобных слов будет низкий.

Функция bind_tf_idf() принимает на входе тиббл с абсолютной частотностью для каждого слова.

author_word_tfidf <- author_word_rf %>% 
  filter(!word %in% other) %>% 
  bind_tf_idf(word, author, n)

author_word_tfidf

## # A tibble: 14,103 × 8
##    author word      n  total    rf     tf   idf tf_idf
##    <chr>  <chr> <int>  <int> <dbl>  <dbl> <dbl>  <dbl>
##  1 Locke  the    7431 148171  5.01 0.0502     0      0
##  2 Locke  of     7044 148171  4.75 0.0476     0      0
##  3 Locke  and    4817 148171  3.25 0.0325     0      0
##  4 Locke  to     4603 148171  3.11 0.0311     0      0
##  5 Hume   the    3182  53590  5.94 0.0594     0      0
##  6 Locke  in     3056 148171  2.06 0.0206     0      0
##  7 Locke  that   2954 148171  1.99 0.0199     0      0
##  8 Locke  it     2742 148171  1.85 0.0185     0      0
##  9 Locke  is     2462 148171  1.66 0.0166     0      0
## 10 Hume   of     2461  53590  4.59 0.0459     0      0
## # ℹ 14,093 more rows

Выбираем слова с высокой tf-idf:

author_word_tfidf %>% 
  select(-total) %>% 
  arrange(desc(tf_idf))

## # A tibble: 14,103 × 7
##    author word          n    rf       tf   idf   tf_idf
##    <chr>  <chr>     <int> <dbl>    <dbl> <dbl>    <dbl>
##  1 Hume   event        71 0.132 0.00133  1.10  0.00146 
##  2 Locke  innate      297 0.2   0.00201  0.405 0.000813
##  3 Hume   sentiment    35 0.065 0.000653 1.10  0.000718
##  4 Hume   reasoning    91 0.17  0.00170  0.405 0.000689
##  5 Locke  duration    249 0.168 0.00168  0.405 0.000682
##  6 Hume   fact         80 0.149 0.00149  0.405 0.000605
##  7 Hume   enquiry      29 0.054 0.000541 1.10  0.000595
##  8 Hume   conjoined    26 0.049 0.000485 1.10  0.000533
##  9 Hume   energy       26 0.049 0.000485 1.10  0.000533
## 10 Hume   witnesses    22 0.041 0.000411 1.10  0.000451
## # ℹ 14,093 more rows
…
freq <- author_word_rf %>%
  anti_join(stop_words) %>% 
  mutate(rf = rf / 100) %>% 
  filter(rf > 0.0001) %>% 
  select(-n, -total) %>% 
  spread(author, rf, fill = 0) %>% 
  gather(author, rf, Hume:Locke)

## Joining with `by =
## join_by(word)`

freq

## # A tibble: 2,458 × 4
##    word        Berkeley author      rf
##    <chr>          <dbl> <chr>    <dbl>
##  1 absence      0       Hume   0      
##  2 absent       0       Hume   0      
##  3 absolute     0.00071 Hume   0.00021
##  4 absolutely   0.00027 Hume   0.00015
##  5 abstract     0.0025  Hume   0.00035
##  6 abstracted   0.00046 Hume   0      
##  7 abstracting  0.00014 Hume   0      
##  8 abstraction  0.00049 Hume   0      
##  9 abstruse     0       Hume   0.00017
## 10 absurd       0.00049 Hume   0.00017
## # ℹ 2,448 more rows
…
