Тема 8 Регулярные выражения | Компьютерный анализ текста в R
…
Вариацией этой функции является str_count():

str_count(as.character(gods$greek_gods), "[Aa]")

##  [1] 1 1 1 1 2 0 0 1 1 1 0 1 0 0 1 2 1 0 0 0 0 1 2 1 0 2 3 2 1 0 0

Эту функцию удобно использовать вместе с mutate() из dplyr:

df %>% 
  mutate(
    vowels = str_count(god, "[AEIOYaeiou]"),
    consonants = str_count(god, "[^AEIOYaeiou]")
  )

## # A tibble: 31 × 4
##    god            i vowels consonants
##    <chr>      <int>  <int>      <int>
##  1 Aphrodite      1      4          5
##  2 Apollo         2      3          3
##  3 Ares           3      2          2
##  4 Artemis        4      3          4
##  5 Athena         5      3          3
##  6 Demeter        6      3          4
##  7 Dionysus       7      3          5
##  8 Hades          8      2          3
##  9 Hephaestus     9      4          6
## 10 Hera          10      2          2
## # ℹ 21 more rows
…
Функция tidyr::extract работает похожим образом, но требует дать имена для каждого элемента группы. Этим удобно пользоваться, если ваши данные хранятся в виде тиббла.

tibble(sentence = sentences) %>% 
  tidyr::extract(
    sentence, c("article", "noun"), "(a|the) ([^ ]+)", 
    remove = FALSE
  )

## # A tibble: 720 × 3
##    sentence                                    article noun   
##    <chr>                                       <chr>   <chr>  
##  1 The birch canoe slid on the smooth planks.  the     smooth 
##  2 Glue the sheet to the dark blue background. the     sheet  
##  3 It's easy to tell the depth of a well.      the     depth  
##  4 These days a chicken leg is a rare dish.    a       chicken
##  5 Rice is often served in round bowls.        <NA>    <NA>   
##  6 The juice of lemons makes fine punch.       <NA>    <NA>   
##  7 The box was thrown beside the parked truck. the     parked 
##  8 The hogs were fed chopped corn and garbage. <NA>    <NA>   
##  9 Four hours of steady work faced us.         <NA>    <NA>   
## 10 A large size in stockings is hard to sell.  <NA>    <NA>   
## # ℹ 710 more rows
…
