Тема 16 Сетевые данные и графы | Компьютерный анализ текста в R
…
16.2.4 Импорт данных

Также данные можно импортировать. Мы воспользуемся датасетом, опубликованном на сайте Пушкинского дома, “Словарь русских писателей XVIII века: сеть персоналий”.

Датасет представляет собой осмысленные в терминах сетевого анализа междустатейные ссылки в Словаре русских писателей XVIII века (1988–2010. Вып. 1–3). Узлами сети выступают посвященные персоналиям статьи словаря, а ребрами — ссылки на другие статьи в том же словаре.

library(readr)
dict_data <- read_csv(file = "files/Persons_EDGES.csv")

dict_data

## # A tibble: 4,440 × 4
##    Source       Target            Weight Type    
##    <chr>        <chr>              <dbl> <chr>   
##  1 Н.И.Ахвердов П.И.Богданович         1 directed
##  2 А.Д.Байбаков А.А.Барсов             1 directed
##  3 А.Д.Кантемир А.К.Барсов             1 directed
##  4 А.Д.Кантемир С.С.Волчков            1 directed
##  5 А.Д.Кантемир И.И.Ильинский          1 directed
##  6 А.Д.Кантемир Ф.Кролик               1 directed
##  7 А.Д.Кантемир М.В.Ломоносов          1 directed
##  8 А.Д.Кантемир Е.Прокопович           1 directed
##  9 А.Д.Кантемир А.П.Сумароков          1 directed
## 10 А.Д.Кантемир В.К.Тредиаковский      1 directed
## # ℹ 4,430 more rows
…
