Тема 12 Тематическое моделирование | Компьютерный анализ текста в R
…
Сшиваем и смотрим, что получилось.

text <- as_tibble(text)
text2 <- as_tibble(text2)
text <- text %>% bind_rows(text2)
dim(text)

## [1] 780   1

text

## # A tibble: 780 × 1
##    value                                                                        
##    <chr>                                                                        
##  1 "\nAntibarbari HSE \n     "                                                  
##  2 "\nLatin never sleeps. Новое видео на канале Antibarbari (фрагмент семинара …
##  3 "\nПодборка видео семинара по медленному чтению \"О философии\" Аристотеля; …
##  4 "\nНовое видео в плейлисте \"Латинский язык\". Фрагмент семинара 28.02.2022h…
##  5 "\n🤖 ОТКРЫТА ЗАПИСЬ НА ПРОЕКТВ рамках проекта участники овладеют навыками п…
##  6 "\nЖелающие присоединиться к группе, читающей \"Филеба\" Платона, пишите рук…
##  7 "\nhttps://youtu.be/I-U_lG0mB3M\n       "                                    
##  8 "\nВ клубе Antibarbari продолжается семинар по чтению и обсуждению фрагменто…
##  9 "\nФилеб. Семинар 3 марта 2022. Сократ и Протарх решают следовать за логосом…
## 10 "\nВышка вернулась в аудитории, поэтому  теперь у нас театральная акустика. …
## # ℹ 770 more rows
…
text_clean <- text %>% 
  mutate(value = str_replace_all(value,
                                 "[Сс]ылка|[Чч]асть", " ")) %>%
  mutate(value = str_replace_all(value, 
                                "[[^\u0400-\u04FF]]", " ")) %>% 
  mutate(value = str_replace_all(value, 
                                 " \\w{1,2} ", " ")) %>% 
  mutate(value = str_remove_all(value,
                                 " лат " )) %>% 
  mutate(value = str_remove_all(value,
                                 " гр " ))

text_clean

## # A tibble: 780 × 1
##    value                                                                        
##    <chr>                                                                        
##  1 "                       "                                                    
##  2 "                     Новое видео канале              фрагмент семинара     …
##  3 " Подборка видео семинара медленному чтению  философии  Аристотеля  руководи…
##  4 " Новое видео плейлисте  Латинский язык   Фрагмент семинара                 …
##  5 "   ОТКРЫТА ЗАПИСЬ ПРОЕКТВ рамках проекта участники овладеют навыками парсин…
##  6 " Желающие присоединиться группе  читающей  Филеба  Платона  пишите руководи…
##  7 "                                     "                                      
##  8 " клубе             продолжается семинар чтению обсуждению фрагментов утраче…
##  9 " Филеб  Семинар   марта       Сократ Протарх решают следовать логосом  кото…
## 10 " Вышка вернулась аудитории  поэтому  теперь нас театральная акустика  доска…
## # ℹ 770 more rows
…
Теперь можно лемматизировать. Как это делать, мы уже знаем.

library(udpipe)
russian_syntagrus <- udpipe_load_model(file = "russian-syntagrus-ud-2.5-191206.udpipe")

text_ann <- udpipe_annotate(russian_syntagrus, text_clean$value)

Разный остаточный мусор.

text_tbl <- as_tibble(text_ann) %>% 
  select(doc_id, lemma)

text_tbl

## # A tibble: 62,690 × 2
##    doc_id lemma    
##    <chr>  <chr>    
##  1 doc2   новый    
##  2 doc2   видео    
##  3 doc2   канал    
##  4 doc2   фрагмент 
##  5 doc2   семинар  
##  6 doc3   подборка 
##  7 doc3   видео    
##  8 doc3   семинар  
##  9 doc3   медленный
## 10 doc3   чтение   
## # ℹ 62,680 more rows
…
Очень короткие слова и очень короткие посты удаляем.

text_tidy <- text_tbl %>%
  anti_join(stop) %>% 
  filter(nchar(lemma) > 1) %>%
  group_by(doc_id) %>% 
  filter(n() >= 15) %>% 
  filter(!lemma %in% c("ибо", "либо")) %>% 
  ungroup()

text_tidy

## # A tibble: 39,818 × 2
##    doc_id lemma      
##    <chr>  <chr>      
##  1 doc5   открыто    
##  2 doc5   запись     
##  3 doc5   Проектвый  
##  4 doc5   рамка      
##  5 doc5   проект     
##  6 doc5   участник   
##  7 doc5   овладеть   
##  8 doc5   навык      
##  9 doc5   парсинг    
## 10 doc5   подготовить
## # ℹ 39,808 more rows
…
В теме 4 видим и других обитателей садов и огородов: “гортензия”, “олива-иресиона”, а в теме 1 больше персоналий: например, буддийский монарх Нагасена, мифический Иксион и др.

12.8 Темы и документы

Распределение тем по документам хранит матрица gamma.

text_documents <- tidy(text_lda, matrix = "gamma")

text_documents %>% 
  filter(topic == 4) %>% 
  arrange(-gamma)

## # A tibble: 538 × 3
##    document topic gamma
##    <chr>    <int> <dbl>
##  1 doc288       4 1.00 
##  2 doc563       4 0.999
##  3 doc402       4 0.999
##  4 doc601       4 0.999
##  5 doc272       4 0.999
##  6 doc199       4 0.999
##  7 doc400       4 0.999
##  8 doc186       4 0.999
##  9 doc470       4 0.999
## 10 doc737       4 0.999
## # ℹ 528 more rows
…
