Тема 10 Токенизация и лемматизация | Компьютерный анализ текста в R
…
10.1 Токенизация в tidytext

Прежде чем передать текст пакету tidytext, его следует трансформировать в тиббл – этого требуют функции на входе. По умолчанию столбец будет называться value, и я его сразу переименую.

liza_tbl <- as_tibble(liza) %>% rename(text = value)
liza_tbl

## # A tibble: 46 × 1
##    text                                                            
##    <chr>                                                           
##  1 "    Может быть, никто из живущих в Москве не знает так хорошо …
##  2 "       На другой стороне реки видна дубовая роща, подле которо…
##  3 "       Часто прихожу на сие место и почти всегда встречаю там …
##  4 "       Но всего чаще привлекает меня к стенам Си...нова монаст…
##  5 "       Саженях в семидесяти от монастырской стены, подле берез…
##  6 "       Отец Лизин был довольно зажиточный поселянин, потому чт…
##  7 "       \"Бог дал мне руки, чтобы работать, -- говорила Лиза, -…
##  8 "       Но часто нежная Лиза не могла удержать собственных слез…
##  9 "       Прошло два года после смерти отца Лизина. Луга покрылис…
## 10 "       Лиза, пришедши домой, рассказала матери, что с нею случ…
## # ℹ 36 more rows
…
“ptb” (Penn Treebank).

Используя уже знакомую функцию map, можно запустить unnest_tokens() с разными аргументами:

params <- tribble(
  ~tbl, ~output, ~input, ~token,
  liza_tbl[1,], "word", "text", "words", 
  liza_tbl[1,], "sentence", "text", "sentences",
  liza_tbl[1,], "char", "text", "characters", 
)

params %>% pmap(unnest_tokens) %>% head()

## [[1]]
## # A tibble: 159 × 1
##    word   
##    <chr>  
##  1 может  
##  2 быть   
##  3 никто  
##  4 из     
##  5 живущих
##  6 в      
##  7 москве 
##  8 не     
##  9 знает  
## 10 так    
## # ℹ 149 more rows
## 
## [[2]]
## # A tibble: 5 × 1
##   sentence                                                         
##   <chr>                                                            
## 1 может быть, никто из живущих в москве не знает так хорошо окрест…
## 2 всякое лето нахожу новые приятные места или в старых новые красо…
## 3 но всего приятнее для меня то место, на котором возвышаются мрач…
## 4 стоя на сей горе, видишь на правой стороне почти всю москву, сию…
## 5 внизу расстилаются тучные, густо-зеленые цветущие луга, а за ним…
## 
## [[3]]
## # A tibble: 846 × 1
##    char 
##    <chr>
##  1 м    
##  2 о    
##  3 ж    
##  4 е    
##  5 т    
##  6 б    
##  7 ы    
##  8 т    
##  9 ь    
## 10 н    
## # ℹ 836 more rows

Следующие значения аргумента token требуют также аргумента n:

params <- tribble(
  ~tbl, ~output, ~input, ~token, ~n,
  liza_tbl[1,], "ngram", "text", "ngrams", 3,
  liza_tbl[1,], "shingles", "text", "character_shingles", 3
)

params %>% pmap(unnest_tokens) %>% head()

## [[1]]
## # A tibble: 157 × 1
##    ngram                  
##    <chr>                  
##  1 может быть никто       
##  2 быть никто из          
##  3 никто из живущих       
##  4 из живущих в           
##  5 живущих в москве       
##  6 в москве не            
##  7 москве не знает        
##  8 не знает так           
##  9 знает так хорошо       
## 10 так хорошо окрестностей
## # ℹ 147 more rows
## 
## [[2]]
## # A tibble: 844 × 1
##    shingles
##    <chr>   
##  1 мож     
##  2 оже     
##  3 жет     
##  4 етб     
##  5 тбы     
##  6 быт     
##  7 ыть     
##  8 тьн     
##  9 ьни     
## 10 ник     
## # ℹ 834 more rows
…
Здесь “пешком” корректно обозначено как наречие; в целом, кажется, вторая модель лучше справилась с задачей.

10.5 Морфологическая разметка

Морфологическая разметка, которую мы получили, дает возможность выбирать и группировать различные части речи. Например, имена и названия: в первом параграфе, который мы проанализировали, их всего 4, причем правильно опознано в качестве собственного имени название Симонова монастыря.

propn <- liza_df %>% 
  filter(upos == "PROPN") 

propn[,2:6]

## # A tibble: 164 × 5
##    sentence_id token_id token       lemma       upos 
##          <int> <chr>    <chr>       <chr>       <chr>
##  1           1 8        Москве      Москва      PROPN
##  2           3 16       Си...нова   Си...нов    PROPN
##  3           4 12       Москву      Москва      PROPN
##  4           5 45       Москву      Москва      PROPN
##  5           2 11       Данилов     Данилов     PROPN
##  6           2 23       Воробьевы   Воробьев    PROPN
##  7           3 21       Коломенское Коломенский PROPN
##  8           9 32       Москва      Москва      PROPN
##  9           1 14       Лизы        Лиза        PROPN
## 10           2 13       Лиза        Лиза        PROPN
## # ℹ 154 more rows

С помощью функции str_detect() можно выбрать конкретные формы, например, винительный падеж.

liza_df %>% filter(str_detect(feats, "Case=Acc"))

## # A tibble: 558 × 11
##    doc_id sentence_id token_id token    lemma    upos  feats       
##    <chr>        <int> <chr>    <chr>    <chr>    <chr> <chr>       
##  1 doc1             1 28       поле     поле     NOUN  Animacy=Ina…
##  2 doc1             2 4        новые    новый    ADJ   Animacy=Ina…
##  3 doc1             2 5        приятные приятный ADJ   Animacy=Ina…
##  4 doc1             2 6        места    место    NOUN  Animacy=Ina…
##  5 doc1             2 10       новые    новый    ADJ   Animacy=Ina…
##  6 doc1             2 11       красоты  красота  NOUN  Animacy=Ina…
##  7 doc1             4 3        сей      сей      DET   Case=Acc|Ge…
##  8 doc1             4 4        горе     горе     NOUN  Animacy=Ina…
##  9 doc1             4 11       всю      весь     DET   Case=Acc|Ge…
## 10 doc1             4 12       Москву   Москва   PROPN Animacy=Ina…
## # ℹ 548 more rows
## # ℹ 4 more variables: head_token_id <chr>, dep_rel <chr>,
## #   deps <chr>, misc <chr>
…
