Тема 5 Функциональное программирование | A Minimal Book Example
…
Приведем в порядок:

corpus_tbl <- corpus_df %>% 
  as_tibble() %>% 
  relocate(ind, .before = values) %>% 
  rename(title = ind, 
         word = values)

corpus_tbl

## # A tibble: 503,475 × 2
##    title   word    
##    <fct>   <chr>   
##  1 Apology ὅστις   
##  2 Apology μέν     
##  3 Apology σύ      
##  4 Apology ὦ       
##  5 Apology ἀνήρ    
##  6 Apology ἀθηναῖος
##  7 Apology πάσχω   
##  8 Apology ὑπό     
##  9 Apology ὁ       
## 10 Apology ἐμός    
## # ℹ 503,465 more rows
…
map_if()

modify()

и др. Итерации в purrr – очень большая тема20, и здесь рассмотрим только некоторые примеры.

5.6.1 map_df() и map_dbl()

Получив на входе тиббл, map применяет заданную функцию к каждому столбцу.

hapax_plato <- as_tibble(hapax_plato)
map_df(hapax_plato, center) 

## # A tibble: 26 × 3
##      words  hapax     ratio
##      <dbl>  <dbl>     <dbl>
##  1 -10619. -111.  -0.00315 
##  2 -11053. -116.  -0.00315 
##  3  -1420.  -24.7 -0.000154
##  4 -14414.  -42.7  0.0138  
##  5 -15195. -128.  -0.00215 
##  6  -6911.  -59.7 -0.000154
##  7 -14183. -132.  -0.00415 
##  8   6973.  -21.7 -0.00215 
##  9 -15004. -135.  -0.00415 
## 10 -15340. -115.   0.000846
## # ℹ 16 more rows
…
