Тема 10 Эмоциональная тональность | Компьютерный анализ текста в R
…
Авторы предостерегают, впрочем, что современные лексиконы могут быть не слишком информативны применительно к классической литературе (в книге анализируются романы Джейн Остин). Мы попробуем, тем не менее, подвергнуть “сентиментальному анализу” сентиментальную прозу Карамзина.

Прежде всего для этого ее необходимо токенизировать, лемматизировать и привести в опрятный формат, как мы делали в предыдущем уроке.

liza_tbl <- as_tibble(liza_ann) %>% 
  filter(upos != "PUNCT") %>% 
  select(lemma) %>% 
  rename(token = lemma) %>% 
  mutate(chunk = round(((row_number() + 50) / 100), 0))

liza_tbl

## # A tibble: 5,049 × 2
##    token  chunk
##    <chr>  <dbl>
##  1 мочь       1
##  2 быть       1
##  3 никто      1
##  4 из         1
##  5 жить       1
##  6 в          1
##  7 Москва     1
##  8 не         1
##  9 знать      1
## 10 так        1
## # ℹ 5,039 more rows
…
liza_sent <- liza_tbl %>% 
  inner_join(rusenti2016) %>% 
  select(-lemma, -ambiguity, -source) %>% 
  filter(sentiment != "neutral")

## Joining with `by = join_by(token)`

liza_sent

## # A tibble: 671 × 4
##    token    chunk speech.part sentiment
##    <chr>    <dbl> <chr>       <chr>    
##  1 приятный     1 Adj         positive 
##  2 старый       1 Adj         negative 
##  3 старый       1 Adj         negative 
##  4 старый       1 Adj         positive 
##  5 красота      1 Noun        positive 
##  6 приятный     1 Adj         positive 
##  7 мрачный      1 Adj         negative 
##  8 горе         1 Noun        negative 
##  9 горе         1 Noun        negative 
## 10 правый       1 Adj         positive 
## # ℹ 661 more rows

10.6 Негативные и позитивные слова

Посмотрим на общую статистику.

liza_sent %>% 
  count(token, sentiment) %>% 
  arrange(-n)

## # A tibble: 246 × 3
##    token    sentiment     n
##    <chr>    <chr>     <int>
##  1 любить   positive     44
##  2 чистый   positive     30
##  3 нежный   positive     21
##  4 друг     positive     16
##  5 зеленый  negative     15
##  6 милый    positive     13
##  7 смерть   negative     11
##  8 любезный positive     10
##  9 бедный   negative      9
## 10 добрый   positive      9
## # ℹ 236 more rows
…
